Imports example data set for plotting — example_data • r2dii.plot.static
…
example_data

    Format

    An object of class spec_tbl_df (inherits from tbl_df, tbl, data.frame) with 1170 rows and 8 columns.

    Value

    A dataframe.

    Examples

example_data

#> # A tibble: 1,170 x 8
#>    sector     technology  year region scenario_source metric          production
#>    <chr>      <chr>      <int> <chr>  <chr>           <chr>                <dbl>
#>  1 automotive electric    2020 global demo_2020       projected          145942.
#>  2 automotive electric    2020 global demo_2020       corporate_econ…   8134869.
#>  3 automotive electric    2020 global demo_2020       target_cps         145942.
#>  4 automotive electric    2020 global demo_2020       target_sds         145942.
#>  5 automotive electric    2020 global demo_2020       target_sps         145942.
#>  6 automotive electric    2021 global demo_2020       projected          148212.
#>  7 automotive electric    2021 global demo_2020       corporate_econ…   8183411.
#>  8 automotive electric    2021 global demo_2020       target_cps         148361.
#>  9 automotive electric    2021 global demo_2020       target_sds         160625.
#> 10 automotive electric    2021 global demo_2020       target_sps         149016.
#> # … with 1,160 more rows, and 1 more variable: technology_share <dbl>
…
