Prepares sda-type data for timeline plot — prepare_for_timelineA • r2dii.plot
…
    Examples

# prepare_for_timelineA() --------------------------------------------------

data <- sda
prepare_for_timelineA(
  data,
  sector_filter = "cement",
  year_start = 2020,
  year_end = 2050, column_line_names = "emission_factor_metric",
  value_to_plot = "emission_factor_value",
  extrapolate_missing_values = TRUE
)

#> # A tibble: 35 x 5
#>    year       line_name         value extrapolated sector
#>    <date>     <chr>             <dbl> <lgl>        <chr> 
#>  1 2020-01-01 projected         0.664 FALSE        cement
#>  2 2021-01-01 projected         0.665 FALSE        cement
#>  3 2022-01-01 projected         0.666 FALSE        cement
#>  4 2023-01-01 projected         0.667 FALSE        cement
#>  5 2024-01-01 projected         0.668 FALSE        cement
#>  6 2025-01-01 projected         0.669 FALSE        cement
#>  7 2020-01-01 corporate_economy 0.669 FALSE        cement
#>  8 2021-01-01 corporate_economy 0.670 FALSE        cement
#>  9 2022-01-01 corporate_economy 0.671 FALSE        cement
#> 10 2023-01-01 corporate_economy 0.672 FALSE        cement
#> # … with 25 more rows
…
