Prepares pre-processed data for plotting a tech-mix chart — prepare_for_techmix_chart • r2dii.plot
…
    Examples

prepare_for_techmix_chart(
  process_input_data(example_data),
  sector_filter = "power",
  years_filter = c(2020, 2025),
  region_filter = "global",
  scenario_source_filter = "demo_2020",
  scenario_filter = "sds",
  value_to_plot = "technology_share"
)

#> # A tibble: 30 x 6
#>    sector technology metric_type    metric             value scenario_source
#>    <chr>  <chr>      <chr>          <chr>              <dbl> <chr>          
#>  1 power  coalcap    portfolio_2020 projected         0.129  demo_2020      
#>  2 power  coalcap    benchmark_2020 corporate_economy 0.374  demo_2020      
#>  3 power  coalcap    scenario_2020  sds               0.384  demo_2020      
#>  4 power  coalcap    portfolio_2025 projected         0.117  demo_2020      
#>  5 power  coalcap    benchmark_2025 corporate_economy 0.374  demo_2020      
#>  6 power  coalcap    scenario_2025  sds               0.316  demo_2020      
#>  7 power  gascap     portfolio_2020 projected         0.0999 demo_2020      
#>  8 power  gascap     benchmark_2020 corporate_economy 0.118  demo_2020      
#>  9 power  gascap     scenario_2020  sds               0.0745 demo_2020      
#> 10 power  gascap     portfolio_2025 projected         0.0885 demo_2020      
#> # … with 20 more rows
…
