r2dii.plot X versus Y • r2dii.plot
…
# install.packages("devtools")
devtools::install_github("2DegreesInvesting/r2dii.plot")

Example

The r2dii.plot package is designed to work smoothly with other “r2dii” packages – r2dii.data, r2dii.match, and r2dii.analysis. It also plays well with the popular packages dplyr and ggplot2, which help you prepare your data and customize your plots.

library(dplyr, warn.conflicts = FALSE)
library(ggplot2, warn.conflicts = FALSE)
library(r2dii.plot)

Your data typically comes from the output of two functions in the r2dii.analysis package: target_sda() and target_market_share(). Here you’ll use two example datasets that come with r2dii.plot.

sda
#> # A tibble: 208 x 4
#>    sector      year emission_factor_metric emission_factor_value
#>    <chr>      <dbl> <chr>                                  <dbl>
#>  1 automotive  2002 projected                              0.228
#>  2 automotive  2003 projected                              0.226
#>  3 automotive  2004 projected                              0.224
#>  4 automotive  2005 projected                              0.222
#>  5 automotive  2006 projected                              0.220
#>  6 automotive  2007 projected                              0.218
#>  7 automotive  2008 projected                              0.216
#>  8 automotive  2009 projected                              0.214
#>  9 automotive  2010 projected                              0.212
#> 10 automotive  2011 projected                              0.210
#> # … with 198 more rows

market_share
#> # A tibble: 1,170 x 8
#>    sector     technology  year region scenario_source metric          production
#>    <chr>      <chr>      <int> <chr>  <chr>           <chr>                <dbl>
#>  1 automotive electric    2020 global demo_2020       projected          145942.
#>  2 automotive electric    2020 global demo_2020       corporate_econ…   8134869.
#>  3 automotive electric    2020 global demo_2020       target_cps         145942.
#>  4 automotive electric    2020 global demo_2020       target_sds         145942.
#>  5 automotive electric    2020 global demo_2020       target_sps         145942.
#>  6 automotive electric    2021 global demo_2020       projected          148212.
#>  7 automotive electric    2021 global demo_2020       corporate_econ…   8183411.
#>  8 automotive electric    2021 global demo_2020       target_cps         148361.
#>  9 automotive electric    2021 global demo_2020       target_sds         160625.
#> 10 automotive electric    2021 global demo_2020       target_sps         149016.
#> # … with 1,160 more rows, and 1 more variable: technology_share <dbl>
…
