r2dii.plot Y • r2dii.plot
…
The timeline plot uses sda-like data. First prepare it with prep_timelineY(), then plot it with plot_timelineY().

Use prep_timelineY() to prepare the data. You’ll need to subset the data to meet the requirements of the plot_timelineY(), which you can do with the argument sector_filter. If you forget, the error message should guide you.

# Fails
prep_timelineY(sda)
#> Error: `sector` must have a single value. It has: automotive, aviation, cement, oil and gas, shipping, coal, steel.

# Works
cement <- prep_timelineY(sda, sector_filter = "cement")
# Same
cement <- prep_timelineY(filter(sda, sector == "cement"))

cement
#> # A tibble: 29 x 7
#>    sector year       emission_factor_met… emission_factor_v… line_name     value
#>    <chr>  <date>     <chr>                             <dbl> <chr>         <dbl>
#>  1 cement 2020-01-01 projected                         0.664 projected     0.664
#>  2 cement 2021-01-01 projected                         0.665 projected     0.665
#>  3 cement 2022-01-01 projected                         0.666 projected     0.666
#>  4 cement 2023-01-01 projected                         0.667 projected     0.667
#>  5 cement 2024-01-01 projected                         0.668 projected     0.668
#>  6 cement 2025-01-01 projected                         0.669 projected     0.669
#>  7 cement 2020-01-01 corporate_economy                 0.669 corporate_ec… 0.669
#>  8 cement 2021-01-01 corporate_economy                 0.670 corporate_ec… 0.670
#>  9 cement 2022-01-01 corporate_economy                 0.671 corporate_ec… 0.671
#> 10 cement 2023-01-01 corporate_economy                 0.672 corporate_ec… 0.672
#> # … with 19 more rows, and 1 more variable: extrapolated <lgl>
…
