An example of an sda-like dataset — sda • r2dii.plot
…
    https://github.com/RMI-PACTA/r2dii.plot/issues/55.

    See also

    r2dii.analysis::target_sda().

Other datasets:
market_share,
r2dii_colours

    Examples

sda
#> # A tibble: 110 × 6
#>    sector  year region             scenario_source emission_factor_metric
#>    <chr>  <dbl> <chr>              <chr>           <chr>                 
#>  1 cement  2020 advanced economies demo_2020       projected             
#>  2 cement  2020 developing asia    demo_2020       projected             
#>  3 cement  2020 global             demo_2020       projected             
#>  4 cement  2021 advanced economies demo_2020       projected             
#>  5 cement  2021 developing asia    demo_2020       projected             
#>  6 cement  2021 global             demo_2020       projected             
#>  7 cement  2022 advanced economies demo_2020       projected             
#>  8 cement  2022 developing asia    demo_2020       projected             
#>  9 cement  2022 global             demo_2020       projected             
#> 10 cement  2023 advanced economies demo_2020       projected             
#> # ℹ 100 more rows
#> # ℹ 1 more variable: emission_factor_value <dbl>
…
